<mxfile host="app.diagrams.net" modified="2023-12-17T17:02:53.886Z" agent="Mozilla/5.0 (X11; Linux x86_64) AppleWebKit/537.36 (KHTML, like Gecko) Chrome/120.0.0.0 Safari/537.36" etag="zlzsBZaqGVr-gpZaN-8N" version="22.1.11" type="gitlab">
  <diagram name="Page-1" id="176jgHC8x77ZDMUNl96X">
    <mxGraphModel dx="572" dy="1091" grid="1" gridSize="13" guides="1" tooltips="1" connect="1" arrows="1" fold="1" page="1" pageScale="1" pageWidth="800" pageHeight="800" background="#ffffff" math="0" shadow="0">
      <root>
        <mxCell id="0" />
        <mxCell id="1" parent="0" />
        <mxCell id="MqkoXDAA0DuoE8tlw1_7-49" value="" style="rounded=0;whiteSpace=wrap;html=1;labelBackgroundColor=default;strokeColor=#004C99;strokeWidth=3;fontFamily=Helvetica;fontSize=12;fillColor=#dae8fc;gradientDirection=north;dashed=1;" parent="1" vertex="1">
          <mxGeometry x="277" y="-399" width="247" height="128" as="geometry" />
        </mxCell>
        <mxCell id="MqkoXDAA0DuoE8tlw1_7-45" style="edgeStyle=orthogonalEdgeStyle;shape=connector;rounded=0;orthogonalLoop=1;jettySize=auto;html=1;labelBackgroundColor=default;strokeColor=#FFB366;strokeWidth=3;fontFamily=Helvetica;fontSize=11;fontColor=default;endArrow=none;endFill=0;entryX=0.5;entryY=0;entryDx=0;entryDy=0;entryPerimeter=0;dashed=1;" parent="1" source="MqkoXDAA0DuoE8tlw1_7-6" target="MqkoXDAA0DuoE8tlw1_7-8" edge="1">
          <mxGeometry relative="1" as="geometry">
            <Array as="points">
              <mxPoint x="402" y="-466" />
            </Array>
            <mxPoint x="441" y="-752" as="sourcePoint" />
          </mxGeometry>
        </mxCell>
        <mxCell id="MqkoXDAA0DuoE8tlw1_7-6" value="&lt;font style=&quot;font-size: 15px;&quot; face=&quot;Verdana&quot;&gt;&lt;b style=&quot;&quot;&gt;&lt;span style=&quot;&quot;&gt;HOME ROUTER&lt;/span&gt;&lt;br&gt;&lt;/b&gt;&lt;/font&gt;" style="fontColor=#000000;verticalAlign=middle;verticalLabelPosition=top;labelPosition=center;align=center;html=1;outlineConnect=0;fillColor=#CCCCCC;strokeColor=#6881B3;gradientColor=none;gradientDirection=north;strokeWidth=2;shape=mxgraph.networks.wireless_modem;horizontal=1;labelBackgroundColor=#FFB366;" parent="1" vertex="1">
          <mxGeometry x="362.5" y="-702" width="80" height="80" as="geometry" />
        </mxCell>
        <mxCell id="MqkoXDAA0DuoE8tlw1_7-10" value="&lt;h1 style=&quot;line-height: 100%; font-size: 15px;&quot;&gt;&lt;font face=&quot;Verdana&quot;&gt;&lt;font style=&quot;font-size: 15px;&quot;&gt;WORKSTATION&lt;/font&gt;&lt;br&gt;&lt;/font&gt;&lt;/h1&gt;" style="fontColor=#000000;verticalAlign=bottom;verticalLabelPosition=top;labelPosition=center;align=center;html=1;outlineConnect=0;fillColor=#CCCCCC;strokeColor=#6881B3;gradientColor=none;gradientDirection=north;strokeWidth=2;shape=mxgraph.networks.laptop;labelBackgroundColor=#FFB366;" parent="1" vertex="1">
          <mxGeometry x="156" y="-585" width="100" height="55" as="geometry" />
        </mxCell>
        <mxCell id="MqkoXDAA0DuoE8tlw1_7-8" value="&lt;p style=&quot;line-height: 100%;&quot;&gt;&lt;font face=&quot;Verdana&quot; style=&quot;font-size: 15px;&quot;&gt;&lt;b&gt;INNER&lt;br&gt;CLOISTER&lt;br&gt;&lt;/b&gt;&lt;/font&gt;&lt;/p&gt;" style="fontColor=#000000;verticalAlign=middle;verticalLabelPosition=top;labelPosition=center;align=center;html=1;outlineConnect=0;fillColor=#CCCCCC;strokeColor=#6881B3;gradientColor=none;gradientDirection=north;strokeWidth=2;shape=mxgraph.networks.server;labelBackgroundColor=#FFB366;" parent="1" vertex="1">
          <mxGeometry x="364" y="-466" width="80" height="75" as="geometry" />
        </mxCell>
        <mxCell id="MqkoXDAA0DuoE8tlw1_7-55" style="edgeStyle=orthogonalEdgeStyle;shape=connector;rounded=0;orthogonalLoop=1;jettySize=auto;html=1;labelBackgroundColor=default;strokeColor=#FFB366;strokeWidth=3;fontFamily=Helvetica;fontSize=12;fontColor=#0066CC;endArrow=none;endFill=0;" parent="1" source="MqkoXDAA0DuoE8tlw1_7-29" target="MqkoXDAA0DuoE8tlw1_7-26" edge="1">
          <mxGeometry relative="1" as="geometry" />
        </mxCell>
        <mxCell id="MqkoXDAA0DuoE8tlw1_7-56" style="edgeStyle=orthogonalEdgeStyle;shape=connector;rounded=0;orthogonalLoop=1;jettySize=auto;html=1;labelBackgroundColor=default;strokeColor=#FFB366;strokeWidth=3;fontFamily=Helvetica;fontSize=12;fontColor=#0066CC;endArrow=none;endFill=0;" parent="1" source="MqkoXDAA0DuoE8tlw1_7-29" target="MqkoXDAA0DuoE8tlw1_7-25" edge="1">
          <mxGeometry relative="1" as="geometry" />
        </mxCell>
        <mxCell id="MqkoXDAA0DuoE8tlw1_7-57" style="edgeStyle=orthogonalEdgeStyle;shape=connector;rounded=0;orthogonalLoop=1;jettySize=auto;html=1;labelBackgroundColor=default;strokeColor=#FFB366;strokeWidth=3;fontFamily=Helvetica;fontSize=12;fontColor=#0066CC;endArrow=none;endFill=0;" parent="1" source="MqkoXDAA0DuoE8tlw1_7-29" target="MqkoXDAA0DuoE8tlw1_7-24" edge="1">
          <mxGeometry relative="1" as="geometry" />
        </mxCell>
        <mxCell id="MqkoXDAA0DuoE8tlw1_7-29" value="&lt;p style=&quot;line-height: 100%;&quot;&gt;&lt;b style=&quot;font-family: Verdana; font-size: 15px;&quot;&gt;SWITCH&lt;/b&gt;&lt;br&gt;&lt;/p&gt;" style="fontColor=#000000;verticalAlign=bottom;verticalLabelPosition=top;labelPosition=center;align=center;html=1;outlineConnect=0;fillColor=#CCCCCC;strokeColor=#6881B3;gradientColor=none;gradientDirection=north;strokeWidth=2;shape=mxgraph.networks.patch_panel;labelBackgroundColor=#FFB366;" parent="1" vertex="1">
          <mxGeometry x="362.5" y="-193" width="80" height="35" as="geometry" />
        </mxCell>
        <mxCell id="35hsVAHJb6XhvyrCTk2L-8" value="&lt;b&gt;GITLAB&lt;br&gt;RUNNER&lt;/b&gt;" style="shape=image;html=1;verticalAlign=top;verticalLabelPosition=bottom;labelBackgroundColor=none;imageAspect=0;aspect=fixed;image=https://cdn4.iconfinder.com/data/icons/socialcones/508/Gitlab-128.png;fontFamily=Verdana;fontColor=#000000;" parent="1" vertex="1">
          <mxGeometry x="375.5" y="-375" width="55" height="55" as="geometry" />
        </mxCell>
        <mxCell id="35hsVAHJb6XhvyrCTk2L-13" style="edgeStyle=orthogonalEdgeStyle;shape=connector;rounded=0;orthogonalLoop=1;jettySize=auto;html=1;labelBackgroundColor=default;strokeColor=#FFB366;strokeWidth=3;fontFamily=Helvetica;fontSize=12;fontColor=#0066CC;endArrow=none;endFill=0;exitX=0.5;exitY=0;exitDx=0;exitDy=0;exitPerimeter=0;entryX=0.5;entryY=1;entryDx=0;entryDy=0;" parent="1" source="MqkoXDAA0DuoE8tlw1_7-29" target="MqkoXDAA0DuoE8tlw1_7-49" edge="1">
          <mxGeometry relative="1" as="geometry">
            <mxPoint x="457" y="-46" as="sourcePoint" />
            <mxPoint x="587" y="17" as="targetPoint" />
          </mxGeometry>
        </mxCell>
        <mxCell id="35hsVAHJb6XhvyrCTk2L-14" value="ROUTER" style="fontColor=#000000;verticalAlign=top;verticalLabelPosition=bottom;labelPosition=center;align=center;html=1;outlineConnect=0;fillColor=#CCCCCC;strokeColor=#6881B3;gradientColor=none;gradientDirection=north;strokeWidth=2;shape=mxgraph.networks.virtual_server;fontSize=15;fontFamily=Verdana;fontStyle=1" parent="1" vertex="1">
          <mxGeometry x="301" y="-375" width="55" height="55" as="geometry" />
        </mxCell>
        <mxCell id="MqkoXDAA0DuoE8tlw1_7-28" value="&lt;b style=&quot;color: rgb(0, 0, 0); font-size: 15px;&quot;&gt;&lt;font face=&quot;Verdana&quot;&gt;32Gb&lt;/font&gt;&lt;/b&gt;" style="fontColor=#0066CC;verticalAlign=top;verticalLabelPosition=bottom;labelPosition=center;align=center;html=1;outlineConnect=0;fillColor=#CCCCCC;strokeColor=#6881B3;gradientColor=none;gradientDirection=north;strokeWidth=2;shape=mxgraph.networks.usb_stick;" parent="1" vertex="1">
          <mxGeometry x="389.75" y="32" width="22.5" height="50" as="geometry" />
        </mxCell>
        <mxCell id="MqkoXDAA0DuoE8tlw1_7-30" value="&lt;b style=&quot;color: rgb(0, 0, 0); font-size: 15px;&quot;&gt;&lt;font face=&quot;Verdana&quot;&gt;32Gb&lt;br&gt;&lt;/font&gt;&lt;/b&gt;" style="fontColor=#0066CC;verticalAlign=top;verticalLabelPosition=bottom;labelPosition=center;align=center;html=1;outlineConnect=0;fillColor=#CCCCCC;strokeColor=#6881B3;gradientColor=none;gradientDirection=north;strokeWidth=2;shape=mxgraph.networks.usb_stick;" parent="1" vertex="1">
          <mxGeometry x="277.5" y="32" width="22.5" height="50" as="geometry" />
        </mxCell>
        <mxCell id="MqkoXDAA0DuoE8tlw1_7-31" value="&lt;b style=&quot;color: rgb(0, 0, 0); font-size: 15px;&quot;&gt;&lt;font face=&quot;Verdana&quot;&gt;32Gb&lt;/font&gt;&lt;/b&gt;" style="fontColor=#0066CC;verticalAlign=top;verticalLabelPosition=bottom;labelPosition=center;align=center;html=1;outlineConnect=0;fillColor=#CCCCCC;strokeColor=#6881B3;gradientColor=none;gradientDirection=north;strokeWidth=2;shape=mxgraph.networks.usb_stick;" parent="1" vertex="1">
          <mxGeometry x="502.5" y="32" width="22.5" height="50" as="geometry" />
        </mxCell>
        <mxCell id="MqkoXDAA0DuoE8tlw1_7-60" value="" style="edgeStyle=orthogonalEdgeStyle;shape=connector;rounded=0;orthogonalLoop=1;jettySize=auto;html=1;labelBackgroundColor=default;strokeColor=#FFB366;strokeWidth=3;fontFamily=Helvetica;fontSize=12;fontColor=#0066CC;endArrow=none;endFill=0;" parent="1" source="MqkoXDAA0DuoE8tlw1_7-24" target="MqkoXDAA0DuoE8tlw1_7-30" edge="1">
          <mxGeometry relative="1" as="geometry" />
        </mxCell>
        <mxCell id="MqkoXDAA0DuoE8tlw1_7-24" value="&lt;p style=&quot;line-height: 100%;&quot;&gt;&lt;b style=&quot;font-size: 15px;&quot;&gt;&lt;font face=&quot;Verdana&quot;&gt;K3S SCRIBE-1&lt;/font&gt;&lt;/b&gt;&lt;br&gt;&lt;/p&gt;" style="fontColor=#000000;verticalAlign=top;verticalLabelPosition=bottom;labelPosition=center;align=center;html=1;outlineConnect=0;fillColor=#CCCCCC;strokeColor=#6881B3;gradientColor=none;gradientDirection=north;strokeWidth=2;shape=mxgraph.networks.server;labelBackgroundColor=#FFB366;" parent="1" vertex="1">
          <mxGeometry x="247" y="-128" width="80" height="75" as="geometry" />
        </mxCell>
        <mxCell id="MqkoXDAA0DuoE8tlw1_7-25" value="&lt;p style=&quot;line-height: 100%;&quot;&gt;&lt;b style=&quot;color: rgb(0, 0, 0); font-size: 15px;&quot;&gt;&lt;font face=&quot;Verdana&quot;&gt;K3S SCRIBE-2&lt;br&gt;&lt;/font&gt;&lt;/b&gt;&lt;/p&gt;" style="fontColor=#0066CC;verticalAlign=top;verticalLabelPosition=bottom;labelPosition=center;align=center;html=1;outlineConnect=0;fillColor=#CCCCCC;strokeColor=#6881B3;gradientColor=none;gradientDirection=north;strokeWidth=2;shape=mxgraph.networks.server;labelBackgroundColor=#FFB366;" parent="1" vertex="1">
          <mxGeometry x="362.5" y="-128" width="80" height="75" as="geometry" />
        </mxCell>
        <mxCell id="MqkoXDAA0DuoE8tlw1_7-43" style="edgeStyle=orthogonalEdgeStyle;shape=connector;rounded=0;orthogonalLoop=1;jettySize=auto;html=1;labelBackgroundColor=default;strokeColor=#FFB366;strokeWidth=3;fontFamily=Helvetica;fontSize=11;fontColor=default;endArrow=none;endFill=0;" parent="1" source="MqkoXDAA0DuoE8tlw1_7-28" target="MqkoXDAA0DuoE8tlw1_7-25" edge="1">
          <mxGeometry relative="1" as="geometry" />
        </mxCell>
        <mxCell id="MqkoXDAA0DuoE8tlw1_7-26" value="&lt;p style=&quot;line-height: 100%;&quot;&gt;&lt;b style=&quot;color: rgb(0, 0, 0); font-size: 15px;&quot;&gt;&lt;font face=&quot;Verdana&quot;&gt;K3S SCRIBE-3&lt;br&gt;&lt;/font&gt;&lt;/b&gt;&lt;/p&gt;" style="fontColor=#0066CC;verticalAlign=top;verticalLabelPosition=bottom;labelPosition=center;align=center;html=1;outlineConnect=0;fillColor=#CCCCCC;strokeColor=#6881B3;gradientColor=none;gradientDirection=north;strokeWidth=2;shape=mxgraph.networks.server;labelBackgroundColor=#FFB366;" parent="1" vertex="1">
          <mxGeometry x="474" y="-128" width="80" height="75" as="geometry" />
        </mxCell>
        <mxCell id="MqkoXDAA0DuoE8tlw1_7-44" style="edgeStyle=orthogonalEdgeStyle;shape=connector;rounded=0;orthogonalLoop=1;jettySize=auto;html=1;labelBackgroundColor=default;strokeColor=#FFB366;strokeWidth=3;fontFamily=Helvetica;fontSize=11;fontColor=default;endArrow=none;endFill=0;" parent="1" source="MqkoXDAA0DuoE8tlw1_7-31" target="MqkoXDAA0DuoE8tlw1_7-26" edge="1">
          <mxGeometry relative="1" as="geometry" />
        </mxCell>
        <mxCell id="yicHW_p1hmMM-_A4w_O--2" value="&lt;b&gt;K3s Master&lt;/b&gt;" style="sketch=0;html=1;dashed=0;whitespace=wrap;fillColor=#2875E2;strokeColor=#ffffff;points=[[0.005,0.63,0],[0.1,0.2,0],[0.9,0.2,0],[0.5,0,0],[0.995,0.63,0],[0.72,0.99,0],[0.5,1,0],[0.28,0.99,0]];verticalLabelPosition=bottom;align=center;verticalAlign=top;shape=mxgraph.kubernetes.icon;prIcon=master" vertex="1" parent="1">
          <mxGeometry x="452" y="-375" width="55" height="55" as="geometry" />
        </mxCell>
      </root>
    </mxGraphModel>
  </diagram>
</mxfile>
